"","ANO_SUBJ","Gender","Age","Diagnosis","Ethnicity","VISIT","ADOS1","nonverbalIQ1","verbalIQ1","MOT_MLU","MOT_LUstd","CHI_MLU","CHI_LUstd","types_MOT","types_CHI","tokens_MOT","tokens_CHI"
"1",1,"F",18.07,"TD","White","1",15,NA,NA,NA,NA,NA,NA,NA,NA,NA,NA
"2",2,"F",19.8,"TD","White","1",0,28,14,3.621993127,2.164552956,1.252252252,0.473980052,378,14,1835,139
"3",2,"F",23.93,"TD","White","2",0,28,14,3.857366771,2.417938569,1.013605442,0.115846166,403,18,2160,148
"4",2,"F",27.7,"TD","White","3",0,28,14,4.321880651,2.517463506,1.556886228,0.747088484,455,97,2149,255
"5",2,"F",32.9,"TD","White","4",0,28,14,4.415329768,2.449572761,2.251572327,1.578027403,533,133,2260,321
"6",2,"F",35.9,"TD","White","5",0,28,14,5.209615385,2.814164695,3.238095238,2.355940049,601,182,2553,472
"7",2,"F",40.13,"TD","White","6",0,28,14,4.664012739,2.765260693,2.865168539,2.247883788,595,210,2586,686
"8",3,"F",28.8,"ASD","White","1",13,34,27,4.098445596,2.612375424,2.276859504,1.443781784,317,146,1428,461
"9",3,"F",33.17,"ASD","White","2",13,34,27,4.964664311,2.499220121,3.453038674,2.267779147,307,171,1270,562
"10",3,"F",37.07,"ASD","White","3",13,34,27,4.147058824,2.803221869,3.119318182,2.206002038,351,262,1445,983
"11",3,"F",41.07,"ASD","White","4",13,34,27,5.309803922,2.842620643,4.302325581,2.531521132,335,200,1286,674
"12",3,"F",45.23,"ASD","White","5",13,34,27,NA,NA,NA,NA,NA,NA,NA,NA
"13",3,"F",49.7,"ASD","White","6",13,34,27,4.588477366,2.783584846,3.41350211,2.323496559,304,245,999,698
"14",4,"M",23.5,"TD","White","1",1,29,18,3.757269279,2.350833217,1.877697842,0.963061901,334,51,2674,260
"15",4,"M",27.83,"TD","White","2",1,29,18,4.57208589,2.600616952,2.641860465,1.644473841,464,149,2694,530
"16",4,"M",31.83,"TD","White","3",1,29,18,5.134892086,2.768944912,2.691629956,1.9626626,482,164,2630,542
"17",4,"M",35.53,"TD","White","4",1,29,18,5.301052632,2.912025692,3.92920354,2.673093777,449,206,2397,754
"18",4,"M",39.47,"TD","White","5",1,29,18,4.566037736,2.792686545,3.298578199,2.122090507,534,207,2672,588
"19",4,"M",45.07,"TD","White","6",1,29,18,5.229885057,3.014147292,3.710344828,2.162110212,486,173,2564,460
"20",5,"F",31.03,"ASD","White/Latino","1",8,31,27,3.459369818,2.216235345,2.097222222,1.281922625,379,102,2009,269
"21",5,"F",35.3,"ASD","White/Latino","2",8,31,27,4.130337079,2.607870736,2.56302521,1.845451622,343,170,1657,555
"22",5,"F",38.9,"ASD","White/Latino","3",8,31,27,3.818681319,2.420550542,3.518072289,2.674563114,388,165,1788,490
"23",5,"F",43.13,"ASD","White/Latino","4",8,31,27,4.30162413,2.367014656,3.257142857,2.208333012,356,163,1711,479
"24",5,"F",47.4,"ASD","White/Latino","5",8,31,27,4.602851324,2.611098047,4.043478261,2.367869357,397,146,2082,539
"25",5,"F",51.37,"ASD","White/Latino","6",8,31,27,3.532374101,2.574647167,3.278195489,2.537992171,410,166,2171,738
"26",6,"F",34.03,"ASD","White","1",9,34,27,3.986357435,2.500713015,1.394736842,0.689754864,324,57,2859,197
"27",6,"F",37.57,"ASD","White","2",9,34,27,4.886645963,2.398474268,2.574358974,2.126356936,441,152,2955,487
"28",6,"F",41.57,"ASD","White","3",9,34,27,4.198973042,2.52183257,2.532407407,1.848138638,412,159,2939,468
"29",6,"F",45.53,"ASD","White","4",9,34,27,4.744,2.538988775,2.907258065,2.374993154,384,187,2685,604
"30",6,"F",49.3,"ASD","White","5",9,34,27,4.292134831,2.642361249,2.423280423,1.752001978,418,144,2749,404
"31",6,"F",54.13,"ASD","White","6",9,34,27,4.587179487,2.68592528,2.766519824,2.358437427,462,179,3182,538
"32",7,"M",26.17,"ASD","Bangladeshi","1",17,20,17,2.618729097,1.935874244,1,0,212,4,761,29
"33",7,"M",30.27,"ASD","Bangladeshi","2",17,20,17,1.995884774,1.681411181,0.760683761,0.812820063,140,29,464,149
"34",7,"M",34.57,"ASD","Bangledeshi","3",17,20,17,1.856115108,1.327957002,1.169811321,0.422742576,74,12,250,62
"35",7,"M",38.47,"ASD","Bangladeshi","4",17,20,17,2.035714286,1.782497102,1.714285714,1.979486637,125,50,360,205
"36",7,"M",42.43,"ASD","Bangladeshi","5",17,20,17,1.948453608,1.795591015,1.636363636,1.450194026,92,80,209,349
"37",7,"M",46.53,"ASD","Bangladeshi","6",17,20,17,2.483146067,2.109967568,1.496732026,1.786383439,158,66,536,300
"38",8,"M",41,"ASD","White","1",18,24,14,2.244755245,1.510877961,1.264150943,0.717725532,152,29,578,130
"39",8,"M",49.2,"ASD","White","2",18,24,14,2.417344173,1.789557936,1.321167883,0.782419106,186,42,755,169
"40",8,"M",49.2,"ASD","White","3",18,24,14,2.633928571,1.956348955,1.397435897,0.882010285,196,50,768,210
"41",8,"M",52.27,"ASD","White","4",18,24,14,2.736842105,1.95588465,1.911564626,1.231254932,198,126,814,494
"42",8,"M",57.73,"ASD","White","5",18,24,14,3.992094862,2.278950065,1.52991453,1.800155025,234,73,891,194
"43",8,"M",60.33,"ASD","White","6",18,24,14,NA,NA,NA,NA,NA,NA,NA,NA
"44",9,"F",20.1,"TD","White","1",5,32,31,3.265082267,2.151723543,1.56,1.227354879,288,59,1564,143
"45",9,"F",24.07,"TD","White","2",5,32,31,3.967213115,2.375194302,1.601910828,1.459908877,305,122,2099,554
"46",9,"F",28.17,"TD","White","3",5,32,31,NA,NA,NA,NA,NA,NA,NA,NA
"47",9,"F",32.07,"TD","White","4",5,32,31,4.658333333,2.519079969,3.026595745,2.045840385,375,134,2069,493
"48",9,"F",36.07,"TD","White","5",5,32,31,4.564102564,2.514520618,1.940860215,1.603674313,387,40,2345,323
"49",9,"F",40.17,"TD","White","6",5,32,31,4.366972477,2.542581283,2.225806452,2.006060882,322,64,1352,197
"50",10,"M",18.3,"TD","White","1",0,24,18,3.544419134,2.272387397,1.037878788,0.190903078,363,36,1408,137
"51",10,"M",23.73,"TD","White","2",0,24,18,4.079059829,2.465174005,1.61627907,0.966516216,369,45,1702,132
"52",10,"M",26.63,"TD","White","3",0,24,18,4.592592593,2.546414139,1.83203125,1.134985792,369,129,1991,453
"53",10,"M",31.07,"TD","White","4",0,24,18,4.262195122,2.494374496,2.775641026,2.030453145,400,121,1934,390
"54",10,"M",35,"TD","White","5",0,24,18,4.384946237,2.698504016,2.835820896,1.91301134,428,121,1879,346
"55",10,"M",NA,"TD","White","6",0,24,18,NA,NA,NA,NA,NA,NA,NA,NA
"56",11,"F",19.27,"TD","White","1",3,27,18,4.204845815,2.384766882,1.0375,0.189983552,289,15,1808,83
"57",11,"F",23.83,"TD","White","2",3,27,18,4.37883959,2.438981495,1.12,0.381575681,358,18,2263,55
"58",11,"F",28.53,"TD","White","3",3,27,18,4.298941799,2.786123768,1.552,0.916130995,409,55,2936,188
"59",11,"F",32.43,"TD","White","4",3,27,18,3.790896159,2.701419925,1.647940075,1.032988405,411,96,2345,414
"60",11,"F",36.53,"TD","White","5",3,27,18,3.867601246,2.639192417,2.28358209,1.530511931,359,97,2208,431
"61",11,"F",40.43,"TD","White","6",3,27,18,4.235584843,2.51168976,2.705128205,1.868147131,400,73,2271,189
"62",12,"M",31.77,"ASD","White","1",0,28,33,NA,NA,NA,NA,NA,NA,NA,NA
"63",12,"M",37.13,"ASD","White American","2",0,28,33,NA,NA,NA,NA,NA,NA,NA,NA
"64",13,"F",19.23,"TD","White","1",0,21,15,3.380462725,2.2145183,1.21686747,0.412111599,215,24,1136,101
"65",13,"F",NA,"TD","White","2",0,21,15,2.821917808,2.064656698,1.063063063,0.243076352,185,50,703,117
"66",13,"F",27.27,"TD","White","3",0,21,15,3.940711462,2.524277905,1.5234375,0.838197879,227,56,878,193
"67",13,"F",31.2,"TD","White","4",0,21,15,4.732732733,2.515545191,2.134831461,1.533821044,272,88,1387,354
"68",13,"F",35.63,"TD","White","5",0,21,15,4.543209877,2.52052994,2.548245614,1.826305467,276,148,1300,513
"69",13,"F",40.27,"TD","White","6",0,21,15,4.287581699,2.747959915,2.757142857,2.195356881,260,168,1138,666
"70",14,"F",20.07,"TD","White","1",0,30,16,4.195335277,2.280550632,1.087719298,0.282886237,235,17,1262,62
"71",14,"F",23.83,"TD","White","2",0,30,16,3.444664032,2.205343221,1.364779874,0.56547841,297,72,1551,203
"72",14,"F",28.27,"TD","White","3",0,30,16,4.974683544,2.728075705,3.185770751,2.16353975,318,169,1463,733
"73",14,"F",32.07,"TD","White","4",0,30,16,3.988304094,2.626870381,3,2.175935173,197,122,632,243
"74",14,"F",35.87,"TD","White","5",0,30,16,4.910493827,2.669214247,4.364754098,2.577119441,290,222,1467,916
"75",14,"F",41.5,"TD","White","6",0,30,16,4.468493151,2.574313406,3.504950495,2.50395237,339,201,1498,640
"76",15,"F",19,"TD","White","1",0,25,17,3.960254372,2.133093904,1.574074074,0.646028279,329,69,2139,249
"77",15,"F",22.97,"TD","White","2",0,25,17,3.817109145,2.247686957,1.476190476,0.815106799,411,119,2260,393
"78",15,"F",27.07,"TD","White","3",0,25,17,3.871967655,2.383353356,2.079881657,1.348726328,435,139,2571,630
"79",15,"F",31.03,"TD","White","4",0,25,17,4.083700441,2.429695471,2.798283262,2.025078087,463,203,2361,538
"80",15,"F",35.37,"TD","White","5",0,25,17,4.487841945,2.740111466,3.230113636,2.483102437,511,247,2668,932
"81",15,"F",39.4,"TD","White","6",0,25,17,4.84741784,2.694579048,3.701195219,2.707956141,388,210,1959,864
"82",16,"F",18.97,"TD","White","1",0,23,17,3.420315236,2.273399186,1.03960396,0.195026887,287,7,1625,105
"83",16,"F",22.87,"TD","White","2",0,23,17,3.239831697,2.300066704,1.074468085,0.311915668,346,65,1982,297
"84",16,"F",26.8,"TD","White","3",0,23,17,3.848175182,2.436405818,1.185507246,0.499644906,378,92,2328,368
"85",16,"F",31.47,"TD","White","4",0,23,17,3.801292407,2.375344194,2.317829457,1.462632734,369,158,1984,557
"86",16,"F",35.1,"TD","White","5",0,23,17,4.446280992,2.396451968,3.375,2.348335161,390,238,1864,755
"87",16,"F",39.43,"TD","White","6",0,23,17,4.664285714,2.73237394,3.811403509,2.794802782,359,178,1802,793
"88",17,"F",19.27,"TD","White","1",0,24,15,3.967078189,2.302920516,1.164705882,0.481347589,277,27,1643,99
"89",17,"F",24.8,"TD","White","2",0,24,15,4.2248394,2.675686333,1.046052632,0.238934471,363,25,1819,159
"90",17,"F",28.1,"TD","White","3",0,24,15,4.182978723,2.569983786,1.440860215,0.73268347,409,92,1743,252
"91",17,"F",31.27,"TD","White","4",0,24,15,4.584070796,2.612853401,2.561320755,1.878632118,357,161,1517,495
"92",17,"F",35.9,"TD","White","5",0,24,15,4.165413534,2.486597008,2.469135802,1.956858277,356,69,1426,160
"93",17,"F",40.3,"TD","White","6",0,24,15,4.347708895,2.570905822,2.869047619,2.086120584,327,156,1395,410
"94",18,"F",21.67,"TD","White","1",0,29,26,4.910189983,2.496743952,1.598837209,0.720625404,375,90,2585,254
"95",18,"F",26.27,"TD","White","2",0,29,26,4.750455373,2.491812599,2.744107744,1.909177012,391,196,2303,733
"96",18,"F",30.63,"TD","White","3",0,29,26,4.164788732,2.751112379,2.807692308,2.169244408,408,200,2675,825
"97",18,"F",34.27,"TD","White","4",0,29,26,4.251604621,2.778674866,2.322580645,1.807116149,508,231,3077,793
"98",18,"F",38.17,"TD","White","5",0,29,26,5.433579336,2.515306961,3.10952381,2.134167566,517,219,2762,583
"99",18,"F",42.93,"TD","White","6",0,29,26,4.44587156,2.582457833,2.948207171,2.324584265,491,250,2264,710
"100",19,"F",34.8,"ASD","White","1",14,25,11,3.182389937,2.269629988,1.027777778,0.16433555,281,9,1418,37
"101",19,"F",38.73,"ASD","White","2",14,25,11,2.947229551,2.268834736,1.0125,0.249687304,243,7,999,82
"102",19,"F",NA,"ASD","White","3",14,25,11,2.919168591,2.221130364,1,0,252,2,1145,58
"103",19,"F",46.67,"ASD","White","4",14,25,11,NA,NA,NA,NA,NA,NA,NA,NA
"104",19,"F",50.93,"ASD","White","5",14,25,11,3.996070727,2.788550877,1,0,475,6,2088,9
"105",19,"F",54.43,"ASD","White","6",14,25,11,3.650234742,2.61311471,1,0,281,3,1454,37
"106",20,"F",20.77,"TD","White","1",0,29,33,3.587855297,2.282255401,1.794871795,1.066494069,467,108,2555,406
"107",20,"F",26.13,"TD","White","2",0,29,33,4.357910906,2.588408154,2.722033898,2.019571006,461,160,2687,738
"108",20,"F",30.03,"TD","White","3",0,29,33,4.116057234,2.456142432,3.34,2.284235831,487,201,2479,940
"109",20,"F",34.43,"TD","White","4",0,29,33,4.131578947,2.684468512,3.212820513,2.422827283,565,207,2965,1092
"110",20,"F",38.7,"TD","White","5",0,29,33,3.877102199,2.561362001,3.090277778,2.369989435,575,219,2881,769
"111",20,"F",44.07,"TD","White","6",0,29,33,4.013353116,2.74993386,2.909535452,2.244064604,516,235,2576,1079
"112",21,"F",35.8,"ASD","White","1",11,28,20,2.539823009,1.994618416,1.359550562,0.760650092,283,89,1019,227
"113",21,"F",39.93,"ASD","White","2",11,28,20,3.17,2.210226233,1.486725664,0.832046674,315,86,1316,335
"114",21,"F",43.9,"ASD","White","3",11,28,20,3.615176152,2.334700536,1.905263158,1.236069187,298,88,1159,330
"115",21,"F",47.83,"ASD","White","4",11,28,20,2.762463343,2.070431076,1.617940199,0.821357605,248,87,855,455
"116",21,"F",51.97,"ASD","White","5",11,28,20,4.157190635,2.355958815,1.584,0.92246626,328,45,1142,197
"117",21,"F",56.73,"ASD","White","6",11,28,20,3.156695157,2.184105863,2.145038168,1.414872677,256,55,995,274
"118",22,"F",18.77,"ASD","White","1",9,26,14,2.524739583,2.141337305,0.185714286,0.456472723,321,16,1787,214
"119",22,"F",22.5,"ASD","White","2",9,26,14,2.841004184,2.07793565,1.08,0.611228272,288,73,1822,362
"120",22,"F",26.77,"ASD","White","3",9,26,14,4.063517915,2.574152022,1.610932476,1.292972385,361,132,2092,503
"121",22,"F",30.8,"ASD","White","4",9,26,14,4.560200669,2.703067988,2.248538012,1.747072965,422,153,2485,717
"122",22,"F",34.13,"ASD","White","5",9,26,14,4.837883959,2.543008543,2.250673854,2.098444637,506,219,2504,792
"123",22,"F",37.3,"ASD","White","6",9,26,14,5.37979798,2.712707835,2.902777778,2.499035308,433,155,2389,590
"124",23,"F",27.53,"ASD","African American","1",21,22,8,4.390879479,3.068753135,1,0,485,8,2826,122
"125",23,"F",31.8,"ASD","African American","2",21,22,8,3.381510417,2.630257,1.04,0.195959179,426,9,2524,78
"126",23,"F",36.17,"ASD","African American","3",21,22,8,3.646778043,2.463927415,2,1.224744871,434,13,2764,96
"127",23,"F",40.27,"ASD","African American","4",21,22,8,3.600624025,2.632972182,0.272727273,0.525613152,427,10,2283,93
"128",23,"F",44.7,"ASD","African American","5",21,22,8,4.019230769,2.814730378,0.2,0.4,373,2,1963,5
"129",23,"F",48.97,"ASD","African American","6",21,22,8,3.943636364,2.819817121,0.5,0.5,388,2,2077,2
"130",24,"F",35.47,"ASD","Latino","1",19,26,16,NA,NA,NA,NA,NA,NA,NA,NA
"131",24,"F",39.87,"ASD","Hispanic","2",19,26,16,NA,NA,NA,NA,NA,NA,NA,NA
"132",24,"F",43.57,"ASD","Latino/Hispanic","3",19,26,16,NA,NA,NA,NA,NA,NA,NA,NA
"133",25,"M",18.93,"TD","White","1",0,21,19,3.63047619,2.452719533,1.237113402,0.492692913,343,36,1698,118
"134",25,"M",22.9,"TD","White","2",0,21,19,3.978599222,2.615712992,1.780487805,1.004353008,392,121,1843,414
"135",25,"M",26.67,"TD","White","3",0,21,19,3.094879518,2.307995072,1.454954955,0.687892556,432,112,1811,305
"136",25,"M",30.93,"TD","White","4",0,21,19,3.991666667,2.638483887,2.374074074,1.562546021,480,169,2256,592
"137",25,"M",35.13,"TD","White","5",0,21,19,4.746606335,2.66857865,3.7,2.282542442,436,178,1965,686
"138",25,"M",39.23,"TD","White","6",0,21,19,4.211320755,2.707896237,3.091194969,2.28087161,478,221,2044,847
"139",26,"F",27.37,"ASD","White/Latino","1",14,25,19,3.024547804,2.278007877,1.432432432,1.115990423,328,41,2138,103
"140",26,"F",32.1,"ASD","White/Latino","2",14,25,19,2.903722721,1.989632695,1.427350427,1.040350363,301,61,1990,157
"141",26,"F",35.93,"ASD","White/Latino","3",14,25,19,3.215859031,2.048339725,1.086330935,0.280852105,259,29,1332,148
"142",26,"F",42.23,"ASD","White/Latino","4",14,25,19,3.012594458,2.349198388,1.097402597,0.452546626,270,21,1054,162
"143",26,"F",44.93,"ASD","White/Latino","5",14,25,19,2.822259136,2.020649927,1.413333333,0.767564691,306,50,1518,197
"144",26,"F",47.5,"ASD","White/Latino","6",14,25,19,3.534172662,2.459876115,1.305263158,0.754965098,372,47,1748,236
"145",27,"F",37.47,"ASD","White","1",20,13,11,2.917355372,2.073392146,1.083333333,0.399652627,193,6,654,26
"146",27,"F",42.2,"ASD","White","2",20,13,11,3.815140845,2.525081852,1,0,434,6,1995,32
"147",27,"F",46.37,"ASD","White","3",20,13,11,3.910447761,2.50510728,1,0,344,1,1393,40
"148",27,"F",52.13,"ASD","White","4",20,13,11,3.814814815,2.655874509,1.203252033,0.597547149,353,29,1482,143
"149",27,"F",57.2,"ASD","White","5",20,13,11,4.421221865,2.59223422,1,0,303,4,1278,34
"150",27,"F",62.4,"ASD","White","6",20,13,11,3.860795455,2.583920436,1.168,0.485567709,309,62,1349,143
"151",28,"F",21.77,"TD","White","1",0,29,22,4.6432,2.619139889,1.582733813,0.838800793,373,71,2740,433
"152",28,"F",25.47,"TD","White","2",0,29,22,4.6,2.552728494,2.484732824,1.413456231,419,145,2562,623
"153",28,"F",30.13,"TD","White","3",0,29,22,4.127941176,2.433186339,2.804216867,2.144110803,455,217,2589,826
"154",28,"F",34,"TD","White","4",0,29,22,5.3625,2.914683424,3.731092437,2.895076896,553,291,2978,1225
"155",28,"F",37.93,"TD","White","5",0,29,22,4.267409471,2.686149708,2.74137931,2.069360594,578,298,2940,1145
"156",28,"F",42.47,"TD","White","6",0,29,22,4.472992701,2.718079605,3.061452514,2.368701908,555,237,2895,1010
"157",29,"F",30.4,"ASD","White","1",11,32,33,4.690751445,2.545488134,3.4,1.72257735,278,119,1450,483
"158",29,"F",34.43,"ASD","White","2",11,32,33,NA,NA,NA,NA,NA,NA,NA,NA
"159",29,"F",38.6,"ASD","White","3",11,32,33,4.31627907,2.713868794,3.919689119,2.370211487,333,307,1668,1293
"160",29,"F",42.63,"ASD","White","4",11,32,33,4.857142857,2.675294005,3.523809524,2.537697637,398,188,2518,714
"161",29,"F",46.93,"ASD","White","5",11,32,33,4.34551495,2.772711379,3.291989664,2.229706165,437,261,2410,1154
"162",29,"F",51,"ASD","White","6",11,32,33,4.111413043,2.889463649,3.364341085,2.596771951,452,273,3076,1249
"163",30,"F",21.03,"TD","White","1",0,26,18,3.61686747,2.261293972,1.366197183,0.676349702,317,37,1361,95
"164",30,"F",25.23,"TD","White","2",0,26,18,3.869653768,2.275190662,1.422857143,0.780873399,287,72,1663,236
"165",30,"F",29.07,"TD","White","3",0,26,18,3.846625767,2.504595748,1.497607656,0.913086159,318,89,1706,299
"166",30,"F",33.3,"TD","White","4",0,26,18,3.973469388,2.627427974,1.740585774,1.240725119,364,114,1754,384
"167",30,"F",37.73,"TD","White","5",0,26,18,3.479392625,2.297340833,2.179190751,1.626096938,327,114,1385,318
"168",30,"F",41.17,"TD","White","6",0,26,18,4.254504505,2.57685514,2.48,1.881087156,385,154,1788,530
"169",31,"F",19.93,"TD","White","1",0,20,16,2.788793103,2.055953154,1.275862069,0.471964716,178,34,584,111
"170",31,"F",23.57,"TD","White","2",0,20,16,3.367292225,2.325220717,1.655737705,1.011711409,255,71,1139,258
"171",31,"F",27.03,"TD","White","3",0,20,16,3.210084034,2.392356934,1.836909871,1.182494953,233,131,1006,403
"172",31,"F",31,"TD","White","4",0,20,16,3.683406114,2.585268092,2.35,1.52834333,309,139,1470,502
"173",31,"F",36.43,"TD","White","5",0,20,16,3.708933718,2.370327076,3.585253456,1.958877713,272,177,1098,622
"174",31,"F",39.43,"TD","White","6",0,20,16,4.23943662,2.588671747,2.960784314,2.244477181,391,164,1889,521
"175",32,"F",34.87,"ASD","White","1",17,26,14,3.304189435,2.372505061,1.00862069,0.092446597,295,6,1643,117
"176",32,"F",38.13,"ASD","White","2",17,26,14,4.003072197,2.624472401,1.011428571,0.150753211,331,18,2448,177
"177",32,"F",43.1,"ASD","White","3",17,26,14,4.382550336,2.788031264,0.684210526,0.464829519,345,13,2417,39
"178",32,"F",46.63,"ASD","White","4",17,26,14,3.885113269,2.556432031,0.894736842,0.306892205,361,13,2214,39
"179",32,"F",50.97,"ASD","White","5",17,26,14,4.872013652,2.748068209,0.255319149,0.617754517,415,9,2560,179
"180",32,"F",55.17,"ASD","White","6",17,26,14,4.34935305,2.639446349,1.288343558,0.788910302,454,52,2391,204
"181",33,"F",36.53,"ASD","White","1",12,31,13,3.607087827,2.340376287,0.9,0.435889894,366,11,2054,21
"182",33,"F",40.5,"ASD","White","2",12,31,13,3.843410853,2.501219701,1.026548673,0.160760196,403,15,2211,116
"183",33,"F",44.67,"ASD","White","3",12,31,13,4.015698587,2.498301782,1.006666667,0.081377037,430,21,2278,151
"184",33,"F",48.1,"ASD","White","4",12,31,13,3.961832061,2.661299058,1.125,0.370341434,409,26,1863,79
"185",33,"F",52.9,"ASD","White","5",12,31,13,3.859623734,2.554013754,0.413043478,0.670045,465,42,2360,193
"186",33,"F",56.43,"ASD","White","6",12,31,13,4.341549296,2.704892358,1.084337349,0.887731905,425,101,2219,195
"187",34,"F",23.13,"TD","White","1",0,27,22,3.494327391,2.302218698,1.533333333,1.066666667,322,91,1870,319
"188",34,"F",27.7,"TD","White","2",0,27,22,4.222033898,2.450843355,2.248148148,1.615175801,405,141,2219,542
"189",34,"F",32.07,"TD","White","3",0,27,22,3.552459016,2.378462553,2.987525988,2.16757678,396,233,1872,1246
"190",34,"F",35.03,"TD","White","4",0,27,22,3.667638484,2.511263714,2.727272727,2.173550352,480,186,2233,750
"191",34,"F",39.53,"TD","White","5",0,27,22,3.906856404,2.65850527,2.142061281,1.880670534,491,211,2729,690
"192",34,"F",43.8,"TD","White","6",0,27,22,3.603473227,2.723471348,2.071748879,1.785406735,475,185,2363,418
"193",35,"F",34.27,"ASD","White","1",21,21,9,3.686346863,2.650864569,1.5,0.5,228,3,927,3
"194",35,"F",38.33,"ASD","White","2",21,21,9,4.142561983,2.80022255,1,0,454,2,1856,7
"195",35,"F",42.13,"ASD","White","3",21,21,9,3.990825688,2.685316556,1,0,323,1,1590,1
"196",35,"F",47.1,"ASD","White","4",21,21,9,3.743333333,2.51676821,1,0,352,6,2054,14
"197",35,"F",50.73,"ASD","White","5",21,21,9,3.414893617,2.501104328,1,0,355,3,1388,33
"198",35,"F",54.63,"ASD","White","6",21,21,9,4.003257329,2.537020196,2.631578947,1.458569101,585,12,2202,100
"199",36,"M",25.33,"ASD","African American","1",14,25,11,2.287292818,1.928358838,1.25,0.574767034,206,13,788,35
"200",36,"M",29.7,"ASD","African American","2",14,25,11,2.879924953,1.998270921,1,0,285,2,1393,10
"201",36,"M",34.1,"ASD","African American","3",14,25,11,3.404958678,2.157357246,1.083333333,0.399652627,272,3,1504,26
"202",36,"M",36.93,"ASD","African American","4",14,25,11,3.110932476,2.09014902,1.210084034,0.808296784,281,18,1726,142
"203",36,"M",42.97,"ASD","African American","5",14,25,11,4.185416667,2.737280401,0.675675676,1.140271519,383,9,1917,42
"204",36,"M",46.17,"ASD","African American","6",14,25,11,3.965391621,2.431705587,0.753623188,0.93879042,326,14,1852,79
"205",37,"F",33.77,"ASD","White","1",10,27,22,2.743455497,1.892986946,1.376623377,0.635302587,214,67,893,180
"206",37,"F",38.13,"ASD","White","2",10,27,22,2.667721519,2.265670298,1.948113208,1.274623965,220,100,748,368
"207",37,"F",43,"ASD","White","3",10,27,22,3.866834171,2.307918536,1.805687204,1.120750374,318,100,1350,365
"208",37,"F",46.13,"ASD","White","4",10,27,22,3.997126437,2.37382586,2.196261682,1.376975233,321,107,1224,438
"209",37,"F",50.3,"ASD","White","5",10,27,22,3.419664269,2.355441047,2.575892857,1.402659816,298,120,1223,537
"210",37,"F",53.77,"ASD","White","6",10,27,22,3.370936902,2.314654553,2.274509804,1.585206504,342,157,1540,605
"211",38,"F",19.3,"TD","White","1",1,23,21,3.561363636,2.229116815,1.264150943,0.554601451,291,24,1344,260
"212",38,"F",23.43,"TD","White","2",1,23,21,3.636518771,2.275248364,1.934291581,0.980191209,300,128,1784,879
"213",38,"F",27.13,"TD","White","3",1,23,21,3.67513369,2.252763451,2.571014493,1.808602748,366,155,2328,702
"214",38,"F",30.8,"TD","White","4",1,23,21,4.001612903,2.31649011,1.974358974,1.329877177,361,29,2145,74
"215",38,"F",34.93,"TD","White","5",1,23,21,4.069659443,2.445019366,2.554179567,1.747002614,436,161,2279,736
"216",38,"F",39.07,"TD","White","6",1,23,21,4.239197531,2.596865508,2.381578947,2.139645232,411,156,2438,611
"217",39,"F",19.2,"TD","White","1",3,19,13,3.921108742,2.376179327,1.230769231,0.575639598,281,8,1631,16
"218",39,"F",22.87,"TD","White","2",3,19,13,3.942164179,2.514586955,1.310344828,0.762788967,321,44,1843,107
"219",39,"F",26.87,"TD","White","3",3,19,13,4.595567867,2.495954016,1.75,1.082956194,323,76,1504,218
"220",39,"F",30.4,"TD","White","4",3,19,13,3.705440901,2.51850719,2.259414226,1.579042025,295,136,1715,477
"221",39,"F",34.4,"TD","White","5",3,19,13,4.13740458,2.620422898,2.278761062,1.671518377,366,145,1979,459
"222",39,"F",38.53,"TD","White","6",3,19,13,4.388235294,2.571003242,2.56147541,1.901334593,324,165,1978,568
"223",40,"F",39.5,"ASD","White","1",7,33,26,4.135036496,2.563075572,0.480582524,0.722127151,381,39,1988,337
"224",40,"F",43.68,"ASD","White","2",7,33,26,4.054054054,2.668833892,1.343283582,1.284839717,416,100,2340,433
"225",40,"F",47.73,"ASD","White","3",7,33,26,3.642411642,2.625833123,1.881266491,1.497277205,330,175,1570,694
"226",40,"F",51.67,"ASD","White","4",7,33,26,5.05,2.759377949,2.515981735,2.098808168,410,148,2252,510
"227",40,"F",55.17,"ASD","White","5",7,33,26,4.658802178,2.756893623,2.746875,2.228015425,407,228,2314,815
"228",40,"F",58.77,"ASD","White","6",7,33,26,4.240797546,2.555276865,3.077419355,2.352858204,429,217,2510,897
"229",41,"M",19.87,"TD","White","1",1,29,28,3.420974889,2.244646399,1.332278481,0.763301373,342,96,2035,398
"230",41,"M",24.17,"TD","White","2",1,29,28,4.073282443,2.467647903,2.172727273,1.80332567,435,142,2290,439
"231",41,"M",28.07,"TD","White","3",1,29,28,4.577490775,2.647231161,2.869047619,2.421529239,420,175,2146,825
"232",41,"M",32.17,"TD","White","4",1,29,28,4.169161677,2.487659582,2.647540984,2.08594882,513,195,2482,576
"233",41,"M",36.13,"TD","White","5",1,29,28,4.917926566,2.721358291,3.518518519,2.542532572,447,210,1999,800
"234",41,"M",40.23,"TD","White","6",1,29,28,NA,NA,NA,NA,NA,NA,NA,NA
"235",42,"F",33.2,"ASD","White/Asian","1",11,26,19,3.298747764,1.995123358,1.204301075,0.578450652,274,36,1537,109
"236",42,"F",37.37,"ASD","White/Asian","2",11,26,19,2.76097561,1.868812681,1.257142857,0.69045977,277,55,1481,126
"237",42,"F",41.73,"ASD","White/Asian","3",11,26,19,3.607664234,2.134461679,1.888,1.089704547,327,51,1709,232
"238",42,"F",45.33,"ASD","White/Asian","4",11,26,19,3.714555766,2.132606666,1.7,1.037625494,302,36,1675,135
"239",42,"F",48.63,"ASD","White/Asian","5",11,26,19,2.902088773,1.919277176,1.651162791,0.927204374,321,90,1951,340
"240",42,"F",53.63,"ASD","White/Asian","6",11,26,19,4.100706714,2.162669025,1.644736842,1.188806869,330,55,1987,110
"241",43,"F",24.9,"ASD","Lebanese","1",13,27,13,2.997050147,2.202838776,1.01754386,0.131286224,252,9,1827,58
"242",43,"F",32.2,"ASD","Lebanese","2",13,27,13,2.900837989,2.015290536,1.219512195,0.591767167,295,52,1882,148
"243",43,"F",34,"ASD","Lebanese","3",13,27,13,3.723664122,2.151152081,2.070422535,1.150512566,346,134,2148,404
"244",43,"F",NA,"ASD","Lebanese","4",13,27,13,3.812929849,2.397430554,2.99,1.989949748,430,180,2377,493
"245",43,"F",42.27,"ASD","Lebanese","5",13,27,13,NA,NA,NA,NA,NA,NA,NA,NA
"246",43,"F",46.4,"ASD","Lebanese","6",13,27,13,3.926928281,2.532082138,2.15862069,1.838949708,417,170,2508,571
"247",44,"F",19.23,"TD","White","1",0,25,17,3.09314587,2.362590424,1.026200873,0.279134617,333,32,1547,235
"248",44,"F",23.07,"TD","White","2",0,25,17,3.751332149,2.227387458,1.197424893,0.651569432,404,97,1847,264
"249",44,"F",28.47,"TD","White","3",0,25,17,4.050505051,2.410514583,1.908629442,1.298877551,304,127,1426,352
"250",44,"F",32.07,"TD","White","4",0,25,17,4.118790497,2.493389326,2.23255814,1.642986635,366,151,1689,434
"251",44,"F",35.67,"TD","White","5",0,25,17,3.969147005,2.446700619,2.289230769,1.803255439,415,187,1936,651
"252",44,"F",39.93,"TD","White","6",0,25,17,4.06147541,2.517217652,2.852631579,1.957272114,397,213,1741,702
"253",45,"F",19.37,"TD","White","1",0,24,19,4.033333333,2.460372806,1.303448276,0.781899878,373,47,2334,176
"254",45,"F",NA,"TD","White","2",0,24,19,4.100166945,2.497407665,2.004672897,1.379074807,368,124,2201,423
"255",45,"F",28.9,"TD","White","3",0,24,19,4.05704698,2.430945767,2.491103203,2.136138597,367,155,2124,604
"256",45,"F",32.07,"TD","White","4",0,24,19,4.611246944,2.590743474,3.830039526,2.388784482,339,193,1726,820
"257",45,"F",36.4,"TD","White","5",0,24,19,3.921443737,2.453860176,3.774907749,2.596669292,358,213,1600,875
"258",45,"F",40.13,"TD","White","6",0,24,19,3.391525424,2.517921401,3.072796935,2.51860271,357,219,1764,719
"259",46,"F",37.03,"ASD","White","1",14,42,27,3.34141791,2.073518408,1.914498141,1.303460446,271,101,1591,450
"260",46,"F",42.77,"ASD","White","2",14,42,27,3.505582137,2.210865752,1.983221477,1.507159766,309,170,2031,536
"261",46,"F",46.23,"ASD","White","3",14,42,27,3.573573574,2.350290665,2.305389222,1.796134377,331,221,2141,1023
"262",46,"F",49.3,"ASD","White","4",14,42,27,3.90521327,2.364933659,2.683783784,1.990519899,390,243,2158,822
"263",46,"F",53.4,"ASD","White","5",14,42,27,4.232258065,2.305867284,2.866504854,2.185376024,396,262,2326,1054
"264",46,"F",57.37,"ASD","White","6",14,42,27,4.250853242,2.59696744,2.679487179,1.897998877,374,219,2227,921
"265",47,"F",19.77,"TD","White","1",3,30,20,3.088757396,2.09865455,1.259259259,0.438228132,275,9,1417,68
"266",47,"F",23.63,"TD","White","2",3,30,20,3.445544554,2.325388278,1.304347826,1.080852426,271,52,1515,120
"267",47,"F",27.67,"TD","White","3",3,30,20,4.106212425,2.644376474,2.231343284,1.742421454,300,102,1740,528
"268",47,"F",32.07,"TD","White","4",3,30,20,4.256790123,2.528501155,2.537037037,2.484865023,302,122,1556,378
"269",47,"F",35.83,"TD","White","5",3,30,20,4.113846154,2.521774523,3.2,2.780354361,307,131,1207,433
"270",47,"F",39.93,"TD","White","6",3,30,20,NA,NA,NA,NA,NA,NA,NA,NA
"271",48,"F",20.03,"TD","White","1",5,24,20,2.776180698,1.904605731,0.558441558,0.781166402,258,20,1188,91
"272",48,"F",24.68,"TD","White","2",5,24,20,3.171717172,2.147304648,0.905172414,0.991154397,288,41,1375,165
"273",48,"F",28.63,"TD","White","3",5,24,20,3.395899054,2.103635631,1.172268908,1.148504645,370,95,1912,354
"274",48,"F",32.77,"TD","White","4",5,24,20,4.019927536,2.302637428,1.76,1.415846822,424,108,1909,433
"275",48,"F",36.7,"TD","White","5",5,24,20,4.329809725,2.311177767,2.255813953,1.965907368,418,142,1791,502
"276",49,"F",23.13,"TD","White","1",0,27,17,NA,NA,NA,NA,NA,NA,NA,NA
"277",49,"F",NA,"TD","White","2",0,27,17,NA,NA,NA,NA,NA,NA,NA,NA
"278",50,"F",36.73,"ASD","White","1",20,21,9,4.883966245,2.773677563,1.166666667,0.5,387,10,2144,63
"279",50,"F",41.5,"ASD","White","2",20,21,9,3.830795262,2.571179431,1.225806452,0.489217771,392,6,1973,38
"280",50,"F",45.57,"ASD","White","3",20,21,9,2.821782178,2.096182478,1,0,245,2,1018,3
"281",50,"F",50.23,"ASD","White","4",20,21,9,2.377171216,2.05306161,1.12,0.587877538,203,11,861,55
"282",50,"F",54.33,"ASD","White","5",20,21,9,3.637964775,2.443900304,1,0,344,1,1609,32
"283",50,"F",57.43,"ASD","White","6",20,21,9,3.460547504,2.287078953,1.161016949,0.431205228,351,10,1918,137
"284",51,"F",NA,"TD","White","1",4,17,16,NA,NA,NA,NA,NA,NA,NA,NA
"285",51,"F",NA,"TD","White","2",4,17,16,NA,NA,NA,NA,NA,NA,NA,NA
"286",52,"M",20.03,"TD","White","1",0,27,20,3.943005181,2.384506398,1.076142132,0.30107985,260,13,1347,212
"287",52,"M",24.4,"TD","White","2",0,27,20,4.18344519,2.589324795,2.248148148,1.71526272,295,128,1653,571
"288",52,"M",29.53,"TD","White","3",0,27,20,3.960264901,2.31955159,2.289361702,1.608915856,364,149,1568,486
"289",52,"M",32.13,"TD","White","4",0,27,20,4.190697674,2.622072139,3.162241888,2.282469227,343,211,1559,973
"290",52,"M",39.1,"TD","White","5",0,27,20,3.673417722,2.39877125,2.73880597,2.181773565,315,131,1224,304
"291",52,"M",40.37,"TD","White","6",0,27,20,4.676100629,2.442829556,2.76,2.025438224,322,34,1371,61
"292",53,"F",31.63,"ASD","White","1",17,28,10,3.76552795,2.329794436,1.25,0.612372436,303,17,2147,40
"293",53,"F",37.2,"ASD","White","2",17,28,10,3.555803571,2.154006292,1,0,272,2,1344,4
"294",53,"F",43.63,"ASD","White","4",17,28,10,3.33911368,2.015506358,1,0,280,1,1482,45
"295",53,"F",52.77,"ASD","White","5",17,28,10,3.162554427,2.025166016,1.41025641,0.990155355,369,79,1871,255
"296",53,"F",NA,"ASD","White","6",17,28,10,3.370093458,2.089905196,1.473451327,0.868170459,319,98,1565,306
"297",54,"F",23.07,"TD","White","1",0,27,27,4.030075188,2.695786696,1.425837321,1.023878727,255,73,1452,286
"298",54,"F",27.47,"TD","White","2",0,27,27,4.745238095,2.569852912,2.496774194,1.757469565,408,126,1867,356
"299",54,"F",31.63,"TD","White","3",0,27,27,4.737127371,2.743556805,3.112449799,1.990793474,323,151,1609,671
"300",54,"F",35.63,"TD","White","4",0,27,27,4.880239521,2.722279767,3.480952381,2.573143167,340,229,1452,684
"301",54,"F",39.47,"TD","White","5",0,27,27,5.743772242,2.723008333,3.537142857,2.669947641,425,209,1525,586
"302",54,"F",43.4,"TD","White","6",0,27,27,5.247093023,2.7332987,3.595,2.406444473,383,217,1701,646
"303",55,"F",37.47,"ASD","White","1",19,17,10,3.704109589,2.276770024,1.1,0.489897949,265,8,1215,43
"304",55,"F",42.2,"ASD","White","2",19,17,10,3.563356164,2.464701426,1.362831858,0.798914606,381,20,1851,147
"305",55,"F",46.37,"ASD","White","3",19,17,10,3.979949875,2.665964631,1.166666667,0.592461054,368,27,1423,77
"306",55,"F",52.13,"ASD","White","4",19,17,10,4.009933775,2.733754059,1,0,358,1,1145,70
"307",55,"F",57.2,"ASD","White","5",19,17,10,3.86440678,2.599313925,0,0,364,0,1447,0
"308",55,"F",62.4,"ASD","White","6",19,17,10,3.886842105,2.583415839,1.333333333,0.745355993,370,4,1396,8
"309",56,"M",20.87,"TD","Asian","1",1,22,14,3.435742972,2.257714919,1.181818182,0.457565723,331,7,1503,38
"310",56,"M",25.4,"TD","Asian","2",1,22,14,4.073349633,2.339100778,1.197674419,0.566912639,309,20,1483,97
"311",56,"M",29.67,"TD","Asian","3",1,22,14,4.022624434,2.29684702,1.552941176,0.939410107,333,56,1562,122
"312",56,"M",34.43,"TD","Asian","4",1,22,14,4.137014315,2.600857197,3.028985507,2.349659331,363,112,1829,348
"313",56,"M",37.67,"TD","Asian","5",1,22,14,5.185941043,2.686471033,2.921568627,2.131400509,388,108,1986,238
"314",56,"M",42.1,"TD","Asian","6",1,22,14,5.153638814,2.756146079,2.761290323,2.146516671,383,140,1866,395
"315",57,"F",22.57,"TD","White","1",0,29,22,5.34422658,2.917012006,1.408695652,0.843343781,441,92,2267,319
"316",57,"F",26.63,"TD","White","2",0,29,22,4.567328918,2.776118778,1.735955056,1.123272425,415,122,1845,298
"317",57,"F",30.77,"TD","White","3",0,29,22,5.288990826,2.867721003,3.303754266,2.271627846,474,200,2142,897
"318",57,"F",35.03,"TD","White","4",0,29,22,5.338461538,2.885117905,3.07755102,2.265559831,554,177,2585,642
"319",57,"F",38.6,"TD","White","5",0,29,22,4.983388704,2.948008474,2.832167832,2.293151903,563,219,2772,723
"320",57,"F",43.03,"TD","White","6",0,29,22,5.587332054,2.899558637,2.429292929,1.998117929,548,163,2887,436
"321",58,"F",23.9,"TD","White","1",0,30,30,4.159159159,2.509181078,1.939716312,1.260382664,236,120,1170,473
"322",58,"F",28.6,"TD","White","2",0,30,30,4.557471264,2.480875457,3.217948718,2.000944879,197,126,686,449
"323",58,"F",32.5,"TD","White","3",0,30,30,4.078291815,2.509964186,3.131355932,2.255809793,219,152,1020,660
"324",58,"F",36.4,"TD","White","4",0,30,30,4.458937198,2.765733181,3.634069401,2.377305987,232,217,798,978
"325",58,"F",40.07,"TD","White","5",0,30,30,4.857142857,2.619024835,3.822580645,2.490460468,278,217,1067,814
"326",58,"F",44.43,"TD","White","6",0,30,30,3.706790123,2.400581888,3.243902439,2.224554266,249,102,1024,358
"327",59,"F",19.1,"TD","White","1",1,24,22,3.48787062,2.432204982,1.313953488,0.766472256,214,32,1118,109
"328",59,"F",23.17,"TD","White","2",1,24,22,3.60988075,2.449372444,2.046666667,1.480255233,352,88,1905,287
"329",59,"F",27.07,"TD","White","3",1,24,22,4.298666667,2.406961755,2.330935252,1.615520449,299,85,1418,261
"330",59,"F",30.83,"TD","White","4",1,24,22,3.819960861,2.452458489,3.406504065,1.899239892,332,153,1699,694
"331",59,"F",35.17,"TD","White","5",1,24,22,3.75,2.519183158,3.607287449,2.34383236,394,244,1977,725
"332",59,"F",39.3,"TD","White","6",1,24,22,4.18616145,2.590682759,2.892156863,2.2158381,437,183,2347,517
"333",60,"F",19.97,"TD","White","1",0,26,17,3.509138381,2.189291536,1.184615385,0.387985237,178,11,1144,154
"334",60,"F",23.93,"TD","White","2",0,26,17,3.789634146,2.262151978,1.79020979,1.06339703,219,70,1058,244
"335",60,"F",28.03,"TD","White","3",0,26,17,4.231362468,2.443804073,2.493243243,1.576845215,292,168,1470,672
"336",60,"F",32.03,"TD","White","4",0,26,17,4.177339901,2.596526444,2.862068966,1.964133987,318,205,1524,1051
"337",60,"F",36.83,"TD","White","5",0,26,17,NA,NA,NA,NA,NA,NA,NA,NA
"338",60,"F",41.93,"TD","White","6",0,26,17,3.957230143,2.53774032,2.909274194,2.178948649,367,260,1731,1294
"339",61,"F",35.5,"ASD","White","1",14,27,11,2.548969072,1.706619607,1.044444444,0.206080411,195,9,955,47
"340",61,"F",39.4,"ASD","White","2",14,27,11,3.430641822,2.235802458,1,0,285,1,1417,19
"341",61,"F",44.47,"ASD","White","3",14,27,11,2.963302752,1.933417403,1.75,1.089724736,252,9,1393,14
"342",61,"F",NA,"ASD","White","6",14,27,11,3.474725275,2.095237583,1.058823529,0.235294118,284,6,1390,36
"343",62,"M",41.07,"ASD","White","1",15,28,10,3.833769634,2.417727055,0,0,386,0,2613,0
"344",62,"M",41.07,"ASD","White","2",15,28,10,3.688477952,2.267582376,1,0,389,1,2274,44
"345",62,"M",49.97,"ASD","White","3",15,28,10,4.145588235,2.146332976,0.162162162,0.822439138,542,3,2717,41
"346",62,"M",53.9,"ASD","White","4",15,28,10,3.536414566,1.994233009,0,0,400,1,2196,1
"347",62,"M",58.27,"ASD","White","5",15,28,10,3.693846154,2.122435243,0.2,0.4,435,3,2070,30
"348",62,"M",61.7,"ASD","White","6",15,28,10,3.241421569,2.096168292,0.015625,0.124019593,444,2,2450,64
"349",63,"F",26,"ASD","White","1",15,30,24,2.747099768,1.853343298,1.180904523,0.445454075,338,98,2084,233
"350",63,"F",30.1,"ASD","White","2",15,30,24,3.372319688,2.209269388,1.443298969,0.861179629,260,78,1511,260
"351",63,"F",34.27,"ASD","White","3",15,30,24,3.774030354,2.105849905,1.8,1.267599507,346,153,1891,393
"352",63,"F",38.2,"ASD","White","4",15,30,24,3.471509972,2.123310523,2.012779553,1.510293628,359,144,2109,574
"353",63,"F",42.3,"ASD","White","5",15,30,24,3.29068323,2.150828274,1.759146341,1.290174597,360,158,2276,531
"354",63,"F",46.07,"ASD","White","6",15,30,24,3.32,1.990376849,2.155339806,1.54390302,335,197,2221,618
"355",64,"F",20.8,"TD","White","1",4,29,22,3.432387312,2.124274082,1.183006536,1.031769269,345,62,1805,244
"356",64,"F",25.87,"TD","White","2",4,29,22,4.001724138,2.431474037,1.77092511,1.496086092,334,120,1959,401
"357",64,"F",29.67,"TD","White","3",4,29,22,4.21040724,1.994013737,2.115789474,1.924157549,257,101,1610,424
"358",64,"F",33.6,"TD","White","4",4,29,22,4.69762419,2.404849037,2.714828897,2.119627781,330,157,1974,637
"359",64,"F",37.34,"TD","White","5",4,29,22,4.424836601,2.286722528,2.603846154,1.945602689,341,132,1916,636
"360",64,"F",41,"TD","White","6",4,29,22,4.113157895,2.37206007,2.848,2.169077223,303,158,1460,659
"361",65,"F",34,"ASD","White","1",13,30,30,3.604139715,2.55011015,2.876344086,1.917878412,400,149,2587,469
"362",65,"F",38.63,"ASD","White","2",13,30,30,4.604340568,2.56183258,2.784,2.21480112,413,149,2534,670
"363",65,"F",42.47,"ASD","White","3",13,30,30,4.907590759,2.667128183,4.131868132,2.436935525,459,196,2841,698
"364",65,"F",47,"ASD","White","4",13,30,30,4.085409253,2.536530386,3.359832636,2.479248092,539,214,3163,693
"365",65,"F",51.13,"ASD","White","5",13,30,30,4.223572296,2.645719783,2.965517241,2.166878553,521,145,3090,357
"366",65,"F",54.73,"ASD","White","6",13,30,30,4.080445545,2.591821447,3.441558442,2.43438663,505,226,3072,713
"367",66,"F",42,"ASD","White","1",15,27,16,3.030405405,2.1075206,1.0375,0.189983552,303,15,1579,166
"368",66,"F",46.77,"ASD","White","2",15,27,16,3.302663438,2.126260953,1.099099099,0.394137709,250,48,1205,356
"369",66,"F",50.63,"ASD","White","3",15,27,16,4.520325203,2.39698182,1.582857143,1.137788761,313,70,1618,254
"370",66,"F",54.13,"ASD","White","4",15,27,16,3.312387792,2.12180461,1.320422535,0.847202416,348,61,1644,334
"371",66,"F",58.57,"ASD","White","5",15,27,16,2.96592845,1.958391097,1.668896321,1.490461013,320,122,1527,511
"372",66,"F",62.33,"ASD","White","6",15,27,16,3.514403292,2.24038833,1.401234568,0.912599574,311,58,1481,210
